module github.com/ChristianHering/Website

go 1.14

require (
	github.com/asaskevich/govalidator v0.0.0-20200907205600-7a23bdc65eef // indirect
	github.com/coreos/go-oidc v2.2.1+incompatible
	github.com/davecgh/go-spew v1.1.1 // indirect
	github.com/go-ozzo/ozzo-validation v3.6.0+incompatible
	github.com/golang/protobuf v1.4.2 // indirect
	github.com/gorilla/mux v1.7.4
	github.com/gorilla/sessions v1.2.0
	github.com/justinas/alice v1.2.0
	github.com/lib/pq v1.10.3
	github.com/pkg/errors v0.9.1
	github.com/pquerna/cachecontrol v0.0.0-20180517163645-1555304b9b35 // indirect
	github.com/stretchr/testify v1.3.0 // indirect
	golang.org/x/net v0.0.0-20200625001655-4c5254603344 // indirect
	golang.org/x/oauth2 v0.0.0-20200107190931-bf48bf16ab8d
	google.golang.org/appengine v1.6.6 // indirect
	google.golang.org/protobuf v1.25.0 // indirect
	gopkg.in/alexcesaro/quotedprintable.v3 v3.0.0-20150716171945-2caba252f4dc // indirect
	gopkg.in/gomail.v2 v2.0.0-20160411212932-81ebce5c23df
	gopkg.in/square/go-jose.v2 v2.5.1 // indirect
)
